Reading-in-CWA-files
…
which will give you the output data.frame.

attr(df, "header")
#> NULL

Converting to a Data Frame

The process for converting a CWA to a data.frame is essentially the 2 processes above wrapped into the read_cwa function:

out = read_cwa(file, verbose = FALSE)
out
#> $data
#> # A tibble: 17,400 x 4
#>    time                    X      Y      Z
#>    <dttm>              <dbl>  <dbl>  <dbl>
#>  1 2019-02-26 10:55:06 0.328  0.984  0.203
#>  2 2019-02-26 10:55:06 0.828 -0.359 -0.375
#>  3 2019-02-26 10:55:06 0.875 -0.391 -0.391
#>  4 2019-02-26 10:55:06 0.891 -0.391 -0.391
#>  5 2019-02-26 10:55:06 0.891 -0.375 -0.391
#>  6 2019-02-26 10:55:06 0.875 -0.359 -0.375
#>  7 2019-02-26 10:55:06 0.875 -0.359 -0.391
#>  8 2019-02-26 10:55:06 0.875 -0.359 -0.406
#>  9 2019-02-26 10:55:06 0.875 -0.359 -0.406
#> 10 2019-02-26 10:55:06 0.891 -0.344 -0.406
#> # … with 17,390 more rows
…
which should match up when you have the header information:

out$header$frequency
#> [1] 100

Reading in Other Data

By default, for all functions, the xyz_only = TRUE, which indicates only the time and X/Y/Z acceleration parameters will be reported. If xyz_only = FALSE, then all data available from this extracted code will be retrieved from the data file:

out = read_cwa(file, xyz_only = FALSE, verbose = FALSE)
out$data
#> # A tibble: 17,400 x 11
#>    time                    X      Y      Z light temperature battery
#>    <dttm>              <dbl>  <dbl>  <dbl> <dbl>       <dbl>   <dbl>
#>  1 2019-02-26 10:55:06 0.328  0.984  0.203   283         258     190
#>  2 2019-02-26 10:55:06 0.828 -0.359 -0.375   283         258     190
#>  3 2019-02-26 10:55:06 0.875 -0.391 -0.391   283         258     190
#>  4 2019-02-26 10:55:06 0.891 -0.391 -0.391   283         258     190
#>  5 2019-02-26 10:55:06 0.891 -0.375 -0.391   283         258     190
#>  6 2019-02-26 10:55:06 0.875 -0.359 -0.375   283         258     190
#>  7 2019-02-26 10:55:06 0.875 -0.359 -0.391   283         258     190
#>  8 2019-02-26 10:55:06 0.875 -0.359 -0.406   283         258     190
#>  9 2019-02-26 10:55:06 0.875 -0.359 -0.406   283         258     190
#> 10 2019-02-26 10:55:06 0.891 -0.344 -0.406   283         258     190
#> # … with 17,390 more rows, and 4 more variables: battery_voltage <dbl>,
#> #   battery_percentage <dbl>, battery_relative <dbl>, events <chr>
…
